{
  "kind": "collectionType",
  "collectionName": "groups",
  "info": {
    "singularName": "group",
    "pluralName": "groups",
    "displayName": "group",
    "description": ""
  },
  "options": {
    "draftAndPublish": true
  },
  "pluginOptions": {},
  "attributes": {
    "group": {
      "type": "string"
    },
    "name": {
      "type": "string"
    }
  }
}
